Change Component Footprint: Designator=SW3 Old Footprint=430481025816 New Footprint=430481025816
Change Component Footprint: Designator=Q2 Old Footprint=NXP-SOT23_N New Footprint=NXP-SOT23_N
Added Pin To Net: NetName=VBUS Pin=U2-30
Added Member To Class: ClassName=SubPCB_Rev01 Member=Component R2 2K
