Replace Part D? 1N4148WS-7-F in C:\Users\lacan\Dropbox\Plugg\TIELA\HE1043\repos\subpcb\Rev01\SubPCB_Rev01\SubPCB_Rev01.SchLib with 1N4148WS-7-F from SubPCB_Rev01.SchLib
Replace Part D? 1N4148WS-7-F in C:\Users\lacan\Dropbox\Plugg\TIELA\HE1043\repos\subpcb\Rev01\SubPCB_Rev01\SubPCB_Rev01.SchLib with 1N4148WS-7-F from SubPCB_Rev01.SchLib
Replace Part D? 1N4148WS-7-F in C:\Users\lacan\Dropbox\Plugg\TIELA\HE1043\repos\subpcb\Rev01\SubPCB_Rev01\SubPCB_Rev01.SchLib with 1N4148WS-7-F from SubPCB_Rev01.SchLib
Replace Part U? 25LC640AT-E/MNY in C:\Users\lacan\Dropbox\Plugg\TIELA\HE1043\repos\subpcb\Rev01\SubPCB_Rev01\SubPCB_Rev01.SchLib with 25LC640AT-E/MNY from SubPCB_Rev01.SchLib
Replace Part U? 25LC640AT-E/MNY in C:\Users\lacan\Dropbox\Plugg\TIELA\HE1043\repos\subpcb\Rev01\SubPCB_Rev01\SubPCB_Rev01.SchLib with 25LC640AT-E/MNY from SubPCB_Rev01.SchLib
Replace Part U? 25LC640AT-E/MNY in C:\Users\lacan\Dropbox\Plugg\TIELA\HE1043\repos\subpcb\Rev01\SubPCB_Rev01\SubPCB_Rev01.SchLib with 25LC640AT-E/MNY from SubPCB_Rev01.SchLib
Replace Part J? 47346-0001 in C:\Users\lacan\Dropbox\Plugg\TIELA\HE1043\repos\subpcb\Rev01\SubPCB_Rev01\SubPCB_Rev01.SchLib with 47346-0001 from SubPCB_Rev01.SchLib
Replace Part J? 47346-0001 in C:\Users\lacan\Dropbox\Plugg\TIELA\HE1043\repos\subpcb\Rev01\SubPCB_Rev01\SubPCB_Rev01.SchLib with 47346-0001 from SubPCB_Rev01.SchLib
Replace Part J? 47346-0001 in C:\Users\lacan\Dropbox\Plugg\TIELA\HE1043\repos\subpcb\Rev01\SubPCB_Rev01\SubPCB_Rev01.SchLib with 47346-0001 from SubPCB_Rev01.SchLib
Replace Part P? 53261-0271 in C:\Users\lacan\Dropbox\Plugg\TIELA\HE1043\repos\subpcb\Rev01\SubPCB_Rev01\SubPCB_Rev01.SchLib with 53261-0271 from SubPCB_Rev01.SchLib
Replace Part P? 53261-0271 in C:\Users\lacan\Dropbox\Plugg\TIELA\HE1043\repos\subpcb\Rev01\SubPCB_Rev01\SubPCB_Rev01.SchLib with 53261-0271 from SubPCB_Rev01.SchLib
Replace Part P? 53261-0271 in C:\Users\lacan\Dropbox\Plugg\TIELA\HE1043\repos\subpcb\Rev01\SubPCB_Rev01\SubPCB_Rev01.SchLib with 53261-0271 from SubPCB_Rev01.SchLib
Replace Part P? 95278-101A06LF in C:\Users\lacan\Dropbox\Plugg\TIELA\HE1043\repos\subpcb\Rev01\SubPCB_Rev01\SubPCB_Rev01.SchLib with 95278-101A06LF from SubPCB_Rev01.SchLib
Replace Part P? 95278-101A06LF in C:\Users\lacan\Dropbox\Plugg\TIELA\HE1043\repos\subpcb\Rev01\SubPCB_Rev01\SubPCB_Rev01.SchLib with 95278-101A06LF from SubPCB_Rev01.SchLib
Replace Part P? 95278-101A06LF in C:\Users\lacan\Dropbox\Plugg\TIELA\HE1043\repos\subpcb\Rev01\SubPCB_Rev01\SubPCB_Rev01.SchLib with 95278-101A06LF from SubPCB_Rev01.SchLib
Replace Part SW? 430481025816 in C:\Users\lacan\Dropbox\Plugg\TIELA\HE1043\repos\subpcb\Rev01\SubPCB_Rev01\SubPCB_Rev01.SchLib with 430481025816 from SubPCB_Rev01.SchLib
Replace Part SW? 430481025816 in C:\Users\lacan\Dropbox\Plugg\TIELA\HE1043\repos\subpcb\Rev01\SubPCB_Rev01\SubPCB_Rev01.SchLib with 430481025816 from SubPCB_Rev01.SchLib
Replace Part SW? 430481025816 in C:\Users\lacan\Dropbox\Plugg\TIELA\HE1043\repos\subpcb\Rev01\SubPCB_Rev01\SubPCB_Rev01.SchLib with 430481025816 from SubPCB_Rev01.SchLib
Replace Part X? ABM3B-8.000MHZ-B2-T in C:\Users\lacan\Dropbox\Plugg\TIELA\HE1043\repos\subpcb\Rev01\SubPCB_Rev01\SubPCB_Rev01.SchLib with ABM3B-8.000MHZ-B2-T from SubPCB_Rev01.SchLib
Replace Part X? ABM3B-8.000MHZ-B2-T in C:\Users\lacan\Dropbox\Plugg\TIELA\HE1043\repos\subpcb\Rev01\SubPCB_Rev01\SubPCB_Rev01.SchLib with ABM3B-8.000MHZ-B2-T from SubPCB_Rev01.SchLib
Replace Part X? ABM3B-8.000MHZ-B2-T in C:\Users\lacan\Dropbox\Plugg\TIELA\HE1043\repos\subpcb\Rev01\SubPCB_Rev01\SubPCB_Rev01.SchLib with ABM3B-8.000MHZ-B2-T from SubPCB_Rev01.SchLib
Replace Part Y? ABS07-120-32.768KHZ-T in C:\Users\lacan\Dropbox\Plugg\TIELA\HE1043\repos\subpcb\Rev01\SubPCB_Rev01\SubPCB_Rev01.SchLib with ABS07-120-32.768KHZ-T from SubPCB_Rev01.SchLib
Replace Part Y? ABS07-120-32.768KHZ-T in C:\Users\lacan\Dropbox\Plugg\TIELA\HE1043\repos\subpcb\Rev01\SubPCB_Rev01\SubPCB_Rev01.SchLib with ABS07-120-32.768KHZ-T from SubPCB_Rev01.SchLib
Replace Part Y? ABS07-120-32.768KHZ-T in C:\Users\lacan\Dropbox\Plugg\TIELA\HE1043\repos\subpcb\Rev01\SubPCB_Rev01\SubPCB_Rev01.SchLib with ABS07-120-32.768KHZ-T from SubPCB_Rev01.SchLib
Replace Part BT? Batt_Keystone_3002TR_eec in C:\Users\lacan\Dropbox\Plugg\TIELA\HE1043\repos\subpcb\Rev01\SubPCB_Rev01\SubPCB_Rev01.SchLib with Batt_Keystone_3002TR_eec from SubPCB_Rev01.SchLib
Replace Part BT? Batt_Keystone_3002TR_eec in C:\Users\lacan\Dropbox\Plugg\TIELA\HE1043\repos\subpcb\Rev01\SubPCB_Rev01\SubPCB_Rev01.SchLib with Batt_Keystone_3002TR_eec from SubPCB_Rev01.SchLib
Replace Part BT? Batt_Keystone_3002TR_eec in C:\Users\lacan\Dropbox\Plugg\TIELA\HE1043\repos\subpcb\Rev01\SubPCB_Rev01\SubPCB_Rev01.SchLib with Batt_Keystone_3002TR_eec from SubPCB_Rev01.SchLib
Replace Part U? BNO055 in C:\Users\lacan\Dropbox\Plugg\TIELA\HE1043\repos\subpcb\Rev01\SubPCB_Rev01\SubPCB_Rev01.SchLib with BNO055 from SubPCB_Rev01.SchLib
Replace Part U? BNO055 in C:\Users\lacan\Dropbox\Plugg\TIELA\HE1043\repos\subpcb\Rev01\SubPCB_Rev01\SubPCB_Rev01.SchLib with BNO055 from SubPCB_Rev01.SchLib
Replace Part U? BNO055 in C:\Users\lacan\Dropbox\Plugg\TIELA\HE1043\repos\subpcb\Rev01\SubPCB_Rev01\SubPCB_Rev01.SchLib with BNO055 from SubPCB_Rev01.SchLib
Replace Part M? C0720B001F in C:\Users\lacan\Dropbox\Plugg\TIELA\HE1043\repos\subpcb\Rev01\SubPCB_Rev01\SubPCB_Rev01.SchLib with C0720B001F from SubPCB_Rev01.SchLib
Replace Part M? C0720B001F in C:\Users\lacan\Dropbox\Plugg\TIELA\HE1043\repos\subpcb\Rev01\SubPCB_Rev01\SubPCB_Rev01.SchLib with C0720B001F from SubPCB_Rev01.SchLib
Replace Part M? C0720B001F in C:\Users\lacan\Dropbox\Plugg\TIELA\HE1043\repos\subpcb\Rev01\SubPCB_Rev01\SubPCB_Rev01.SchLib with C0720B001F from SubPCB_Rev01.SchLib
Replace Part Q? FDN340P in C:\Users\lacan\Dropbox\Plugg\TIELA\HE1043\repos\subpcb\Rev01\SubPCB_Rev01\SubPCB_Rev01.SchLib with FDN340P from SubPCB_Rev01.SchLib
Replace Part Q? FDN340P in C:\Users\lacan\Dropbox\Plugg\TIELA\HE1043\repos\subpcb\Rev01\SubPCB_Rev01\SubPCB_Rev01.SchLib with FDN340P from SubPCB_Rev01.SchLib
Replace Part Q? FDN340P in C:\Users\lacan\Dropbox\Plugg\TIELA\HE1043\repos\subpcb\Rev01\SubPCB_Rev01\SubPCB_Rev01.SchLib with FDN340P from SubPCB_Rev01.SchLib
Replace Part U? GD32VF103C in C:\Users\lacan\Dropbox\Plugg\TIELA\HE1043\repos\subpcb\Rev01\SubPCB_Rev01\SubPCB_Rev01.SchLib with GD32VF103C from SubPCB_Rev01.SchLib
Replace Part U? GD32VF103C in C:\Users\lacan\Dropbox\Plugg\TIELA\HE1043\repos\subpcb\Rev01\SubPCB_Rev01\SubPCB_Rev01.SchLib with GD32VF103C from SubPCB_Rev01.SchLib
Replace Part U? GD32VF103C in C:\Users\lacan\Dropbox\Plugg\TIELA\HE1043\repos\subpcb\Rev01\SubPCB_Rev01\SubPCB_Rev01.SchLib with GD32VF103C from SubPCB_Rev01.SchLib
Replace Part C? GRM033R61A104ME15D in C:\Users\lacan\Dropbox\Plugg\TIELA\HE1043\repos\subpcb\Rev01\SubPCB_Rev01\SubPCB_Rev01.SchLib with GRM033R61A104ME15D from SubPCB_Rev01.SchLib
Replace Part C? GRM033R61A104ME15D in C:\Users\lacan\Dropbox\Plugg\TIELA\HE1043\repos\subpcb\Rev01\SubPCB_Rev01\SubPCB_Rev01.SchLib with GRM033R61A104ME15D from SubPCB_Rev01.SchLib
Replace Part C? GRM033R61A104ME15D in C:\Users\lacan\Dropbox\Plugg\TIELA\HE1043\repos\subpcb\Rev01\SubPCB_Rev01\SubPCB_Rev01.SchLib with GRM033R61A104ME15D from SubPCB_Rev01.SchLib
Replace Part C? GRM188R60J106KE47D in C:\Users\lacan\Dropbox\Plugg\TIELA\HE1043\repos\subpcb\Rev01\SubPCB_Rev01\SubPCB_Rev01.SchLib with GRM188R60J106KE47D from SubPCB_Rev01.SchLib
Replace Part C? GRM188R60J106KE47D in C:\Users\lacan\Dropbox\Plugg\TIELA\HE1043\repos\subpcb\Rev01\SubPCB_Rev01\SubPCB_Rev01.SchLib with GRM188R60J106KE47D from SubPCB_Rev01.SchLib
Replace Part C? GRM188R60J106KE47D in C:\Users\lacan\Dropbox\Plugg\TIELA\HE1043\repos\subpcb\Rev01\SubPCB_Rev01\SubPCB_Rev01.SchLib with GRM188R60J106KE47D from SubPCB_Rev01.SchLib
Replace Part C? GRM1555C1H180JA01D in C:\Users\lacan\Dropbox\Plugg\TIELA\HE1043\repos\subpcb\Rev01\SubPCB_Rev01\SubPCB_Rev01.SchLib with GRM1555C1H180JA01D from SubPCB_Rev01.SchLib
Replace Part C? GRM1555C1H180JA01D in C:\Users\lacan\Dropbox\Plugg\TIELA\HE1043\repos\subpcb\Rev01\SubPCB_Rev01\SubPCB_Rev01.SchLib with GRM1555C1H180JA01D from SubPCB_Rev01.SchLib
Replace Part C? GRM1555C1H180JA01D in C:\Users\lacan\Dropbox\Plugg\TIELA\HE1043\repos\subpcb\Rev01\SubPCB_Rev01\SubPCB_Rev01.SchLib with GRM1555C1H180JA01D from SubPCB_Rev01.SchLib
Replace Part * KEYSTONE-1014 in C:\Users\lacan\Dropbox\Plugg\TIELA\HE1043\repos\subpcb\Rev01\SubPCB_Rev01\SubPCB_Rev01.SchLib with KEYSTONE-1014 from SubPCB_Rev01.SchLib
Replace Part * KEYSTONE-1014 in C:\Users\lacan\Dropbox\Plugg\TIELA\HE1043\repos\subpcb\Rev01\SubPCB_Rev01\SubPCB_Rev01.SchLib with KEYSTONE-1014 from SubPCB_Rev01.SchLib
Replace Part * KEYSTONE-1014 in C:\Users\lacan\Dropbox\Plugg\TIELA\HE1043\repos\subpcb\Rev01\SubPCB_Rev01\SubPCB_Rev01.SchLib with KEYSTONE-1014 from SubPCB_Rev01.SchLib
Replace Part DS? LTST-C190KSKT in C:\Users\lacan\Dropbox\Plugg\TIELA\HE1043\repos\subpcb\Rev01\SubPCB_Rev01\SubPCB_Rev01.SchLib with LTST-C190KSKT from SubPCB_Rev01.SchLib
Replace Part DS? LTST-C190KSKT in C:\Users\lacan\Dropbox\Plugg\TIELA\HE1043\repos\subpcb\Rev01\SubPCB_Rev01\SubPCB_Rev01.SchLib with LTST-C190KSKT from SubPCB_Rev01.SchLib
Replace Part DS? LTST-C190KSKT in C:\Users\lacan\Dropbox\Plugg\TIELA\HE1043\repos\subpcb\Rev01\SubPCB_Rev01\SubPCB_Rev01.SchLib with LTST-C190KSKT from SubPCB_Rev01.SchLib
Replace Part DS? LTST-C191KGKT in C:\Users\lacan\Dropbox\Plugg\TIELA\HE1043\repos\subpcb\Rev01\SubPCB_Rev01\SubPCB_Rev01.SchLib with LTST-C191KGKT from SubPCB_Rev01.SchLib
Replace Part DS? LTST-C191KGKT in C:\Users\lacan\Dropbox\Plugg\TIELA\HE1043\repos\subpcb\Rev01\SubPCB_Rev01\SubPCB_Rev01.SchLib with LTST-C191KGKT from SubPCB_Rev01.SchLib
Replace Part DS? LTST-C191KGKT in C:\Users\lacan\Dropbox\Plugg\TIELA\HE1043\repos\subpcb\Rev01\SubPCB_Rev01\SubPCB_Rev01.SchLib with LTST-C191KGKT from SubPCB_Rev01.SchLib
Replace Part D? MBRS240LT3G in C:\Users\lacan\Dropbox\Plugg\TIELA\HE1043\repos\subpcb\Rev01\SubPCB_Rev01\SubPCB_Rev01.SchLib with MBRS240LT3G from SubPCB_Rev01.SchLib
Replace Part D? MBRS240LT3G in C:\Users\lacan\Dropbox\Plugg\TIELA\HE1043\repos\subpcb\Rev01\SubPCB_Rev01\SubPCB_Rev01.SchLib with MBRS240LT3G from SubPCB_Rev01.SchLib
Replace Part D? MBRS240LT3G in C:\Users\lacan\Dropbox\Plugg\TIELA\HE1043\repos\subpcb\Rev01\SubPCB_Rev01\SubPCB_Rev01.SchLib with MBRS240LT3G from SubPCB_Rev01.SchLib
Replace Part U? MCP1825ST-3302E/DB in C:\Users\lacan\Dropbox\Plugg\TIELA\HE1043\repos\subpcb\Rev01\SubPCB_Rev01\SubPCB_Rev01.SchLib with MCP1825ST-3302E/DB from SubPCB_Rev01.SchLib
Replace Part U? MCP1825ST-3302E/DB in C:\Users\lacan\Dropbox\Plugg\TIELA\HE1043\repos\subpcb\Rev01\SubPCB_Rev01\SubPCB_Rev01.SchLib with MCP1825ST-3302E/DB from SubPCB_Rev01.SchLib
Replace Part U? MCP1825ST-3302E/DB in C:\Users\lacan\Dropbox\Plugg\TIELA\HE1043\repos\subpcb\Rev01\SubPCB_Rev01\SubPCB_Rev01.SchLib with MCP1825ST-3302E/DB from SubPCB_Rev01.SchLib
Replace Part U? MCP73831T-2ACI/OT in C:\Users\lacan\Dropbox\Plugg\TIELA\HE1043\repos\subpcb\Rev01\SubPCB_Rev01\SubPCB_Rev01.SchLib with MCP73831T-2ACI/OT from SubPCB_Rev01.SchLib
Replace Part U? MCP73831T-2ACI/OT in C:\Users\lacan\Dropbox\Plugg\TIELA\HE1043\repos\subpcb\Rev01\SubPCB_Rev01\SubPCB_Rev01.SchLib with MCP73831T-2ACI/OT from SubPCB_Rev01.SchLib
Replace Part U? MCP73831T-2ACI/OT in C:\Users\lacan\Dropbox\Plugg\TIELA\HE1043\repos\subpcb\Rev01\SubPCB_Rev01\SubPCB_Rev01.SchLib with MCP73831T-2ACI/OT from SubPCB_Rev01.SchLib
Replace Part F? NANOSMDC110F-2 in C:\Users\lacan\Dropbox\Plugg\TIELA\HE1043\repos\subpcb\Rev01\SubPCB_Rev01\SubPCB_Rev01.SchLib with NANOSMDC110F-2 from SubPCB_Rev01.SchLib
Replace Part F? NANOSMDC110F-2 in C:\Users\lacan\Dropbox\Plugg\TIELA\HE1043\repos\subpcb\Rev01\SubPCB_Rev01\SubPCB_Rev01.SchLib with NANOSMDC110F-2 from SubPCB_Rev01.SchLib
Replace Part F? NANOSMDC110F-2 in C:\Users\lacan\Dropbox\Plugg\TIELA\HE1043\repos\subpcb\Rev01\SubPCB_Rev01\SubPCB_Rev01.SchLib with NANOSMDC110F-2 from SubPCB_Rev01.SchLib
Replace Part R? RC0603FR-072KL in C:\Users\lacan\Dropbox\Plugg\TIELA\HE1043\repos\subpcb\Rev01\SubPCB_Rev01\SubPCB_Rev01.SchLib with RC0603FR-072KL from SubPCB_Rev01.SchLib
Replace Part R? RC0603FR-072KL in C:\Users\lacan\Dropbox\Plugg\TIELA\HE1043\repos\subpcb\Rev01\SubPCB_Rev01\SubPCB_Rev01.SchLib with RC0603FR-072KL from SubPCB_Rev01.SchLib
Replace Part R? RC0603FR-072KL in C:\Users\lacan\Dropbox\Plugg\TIELA\HE1043\repos\subpcb\Rev01\SubPCB_Rev01\SubPCB_Rev01.SchLib with RC0603FR-072KL from SubPCB_Rev01.SchLib
Replace Part R? RC0603FR-0722RL in C:\Users\lacan\Dropbox\Plugg\TIELA\HE1043\repos\subpcb\Rev01\SubPCB_Rev01\SubPCB_Rev01.SchLib with RC0603FR-0722RL from SubPCB_Rev01.SchLib
Replace Part R? RC0603FR-0722RL in C:\Users\lacan\Dropbox\Plugg\TIELA\HE1043\repos\subpcb\Rev01\SubPCB_Rev01\SubPCB_Rev01.SchLib with RC0603FR-0722RL from SubPCB_Rev01.SchLib
Replace Part R? RC0603FR-0722RL in C:\Users\lacan\Dropbox\Plugg\TIELA\HE1043\repos\subpcb\Rev01\SubPCB_Rev01\SubPCB_Rev01.SchLib with RC0603FR-0722RL from SubPCB_Rev01.SchLib
Replace Part R? RC0603FR-07100KL in C:\Users\lacan\Dropbox\Plugg\TIELA\HE1043\repos\subpcb\Rev01\SubPCB_Rev01\SubPCB_Rev01.SchLib with RC0603FR-07100KL from SubPCB_Rev01.SchLib
Replace Part R? RC0603FR-07100KL in C:\Users\lacan\Dropbox\Plugg\TIELA\HE1043\repos\subpcb\Rev01\SubPCB_Rev01\SubPCB_Rev01.SchLib with RC0603FR-07100KL from SubPCB_Rev01.SchLib
Replace Part R? RC0603FR-07100KL in C:\Users\lacan\Dropbox\Plugg\TIELA\HE1043\repos\subpcb\Rev01\SubPCB_Rev01\SubPCB_Rev01.SchLib with RC0603FR-07100KL from SubPCB_Rev01.SchLib
Replace Part R? RC0603FR-07330RL in C:\Users\lacan\Dropbox\Plugg\TIELA\HE1043\repos\subpcb\Rev01\SubPCB_Rev01\SubPCB_Rev01.SchLib with RC0603FR-07330RL from SubPCB_Rev01.SchLib
Replace Part R? RC0603FR-07330RL in C:\Users\lacan\Dropbox\Plugg\TIELA\HE1043\repos\subpcb\Rev01\SubPCB_Rev01\SubPCB_Rev01.SchLib with RC0603FR-07330RL from SubPCB_Rev01.SchLib
Replace Part R? RC0603FR-07330RL in C:\Users\lacan\Dropbox\Plugg\TIELA\HE1043\repos\subpcb\Rev01\SubPCB_Rev01\SubPCB_Rev01.SchLib with RC0603FR-07330RL from SubPCB_Rev01.SchLib
Replace Part R? RC0603JR-0710KL in C:\Users\lacan\Dropbox\Plugg\TIELA\HE1043\repos\subpcb\Rev01\SubPCB_Rev01\SubPCB_Rev01.SchLib with RC0603JR-0710KL from SubPCB_Rev01.SchLib
Replace Part R? RC0603JR-0710KL in C:\Users\lacan\Dropbox\Plugg\TIELA\HE1043\repos\subpcb\Rev01\SubPCB_Rev01\SubPCB_Rev01.SchLib with RC0603JR-0710KL from SubPCB_Rev01.SchLib
Replace Part R? RC0603JR-0710KL in C:\Users\lacan\Dropbox\Plugg\TIELA\HE1043\repos\subpcb\Rev01\SubPCB_Rev01\SubPCB_Rev01.SchLib with RC0603JR-0710KL from SubPCB_Rev01.SchLib
Replace Part Q? SI2302DS,215 in C:\Users\lacan\Dropbox\Plugg\TIELA\HE1043\repos\subpcb\Rev01\SubPCB_Rev01\SubPCB_Rev01.SchLib with SI2302DS,215 from SubPCB_Rev01.SchLib
Replace Part Q? SI2302DS,215 in C:\Users\lacan\Dropbox\Plugg\TIELA\HE1043\repos\subpcb\Rev01\SubPCB_Rev01\SubPCB_Rev01.SchLib with SI2302DS,215 from SubPCB_Rev01.SchLib
Replace Part Q? SI2302DS,215 in C:\Users\lacan\Dropbox\Plugg\TIELA\HE1043\repos\subpcb\Rev01\SubPCB_Rev01\SubPCB_Rev01.SchLib with SI2302DS,215 from SubPCB_Rev01.SchLib
Replace Part U? WS2812 in C:\Users\lacan\Dropbox\Plugg\TIELA\HE1043\repos\subpcb\Rev01\SubPCB_Rev01\SubPCB_Rev01.SchLib with WS2812 from SubPCB_Rev01.SchLib
Replace Part U? WS2812 in C:\Users\lacan\Dropbox\Plugg\TIELA\HE1043\repos\subpcb\Rev01\SubPCB_Rev01\SubPCB_Rev01.SchLib with WS2812 from SubPCB_Rev01.SchLib
Replace Part U? WS2812 in C:\Users\lacan\Dropbox\Plugg\TIELA\HE1043\repos\subpcb\Rev01\SubPCB_Rev01\SubPCB_Rev01.SchLib with WS2812 from SubPCB_Rev01.SchLib
